G75*
G70*
%OFA0B0*%
%FSLAX24Y24*%
%IPPOS*%
%LPD*%
%AMOC8*
5,1,8,0,0,1.08239X$1,22.5*
%
%ADD10C,0.1000*%
%ADD11R,0.1969X0.0787*%
%ADD12R,0.0630X0.1063*%
%ADD13R,0.0515X0.0515*%
%ADD14R,0.0551X0.1417*%
%ADD15OC8,0.0630*%
%ADD16C,0.0630*%
%ADD17C,0.0768*%
%ADD18R,0.0591X0.0512*%
%ADD19R,0.0551X0.0394*%
%ADD20R,0.1063X0.0630*%
%ADD21R,0.0780X0.0220*%
%ADD22OC8,0.0520*%
%ADD23R,0.0512X0.0591*%
%ADD24R,0.0709X0.0669*%
%ADD25R,0.0709X0.0551*%
%ADD26R,0.0551X0.0709*%
%ADD27R,0.0669X0.0709*%
%ADD28OC8,0.0700*%
%ADD29OC8,0.0650*%
%ADD30C,0.0594*%
%ADD31R,0.0236X0.0610*%
%ADD32C,0.1810*%
%ADD33OC8,0.1810*%
%ADD34R,0.0394X0.0433*%
%ADD35R,0.0220X0.0780*%
%ADD36R,0.0433X0.0394*%
%ADD37R,0.0472X0.0472*%
%ADD38C,0.1000*%
%ADD39OC8,0.1000*%
%ADD40C,0.0700*%
%ADD41R,0.0551X0.0551*%
%ADD42R,0.0591X0.0945*%
%ADD43R,0.0945X0.0591*%
%ADD44R,0.0750X0.0450*%
%ADD45R,0.1250X0.2000*%
%ADD46R,0.0512X0.1024*%
%ADD47C,0.0515*%
%ADD48OC8,0.0515*%
%ADD49R,0.0560X0.0140*%
%ADD50C,0.0600*%
%ADD51R,0.0594X0.0594*%
%ADD52OC8,0.0594*%
%ADD53OC8,0.0560*%
%ADD54C,0.0560*%
%ADD55R,0.0396X0.0396*%
%ADD56R,0.0436X0.0436*%
%ADD57C,0.0120*%
%ADD58OC8,0.0396*%
%ADD59C,0.0160*%
%ADD60C,0.0100*%
%ADD61C,0.0200*%
%ADD62C,0.0240*%
%ADD63C,0.2165*%
%ADD64C,0.1500*%
%ADD65C,0.0860*%
%ADD66C,0.0320*%
%ADD67C,0.1200*%
%ADD68C,0.0500*%
%ADD69OC8,0.0436*%
%ADD70C,0.0070*%
%ADD71C,0.0140*%
D10*
X007738Y034077D02*
X008738Y034077D01*
X008738Y036045D02*
X007738Y036045D01*
X022622Y039653D02*
X022668Y039749D01*
X022622Y039653D02*
X022622Y041350D01*
D11*
X018016Y013388D03*
X018016Y012010D03*
X014670Y012010D03*
X014670Y013388D03*
D12*
X012719Y013249D03*
X011617Y013249D03*
X011617Y014599D03*
X012719Y014599D03*
X013019Y007674D03*
X011917Y007674D03*
X020392Y014099D03*
X021494Y014099D03*
X022367Y014099D03*
X023469Y014099D03*
D13*
X022043Y015799D03*
X022043Y016799D03*
X021443Y014099D03*
X020443Y014099D03*
X012968Y007674D03*
X011968Y007674D03*
D14*
X014068Y016175D03*
X014068Y018183D03*
X022143Y012583D03*
X022143Y010575D03*
D15*
X022143Y012299D03*
X014068Y017899D03*
D16*
X014068Y016499D03*
X022143Y010899D03*
D17*
X017774Y040972D02*
X017006Y040972D01*
X014821Y040972D02*
X014053Y040972D01*
X011868Y040972D02*
X011101Y040972D01*
X007931Y040972D02*
X007164Y040972D01*
D18*
X022293Y037873D03*
X022293Y037125D03*
X023093Y037125D03*
X023093Y037873D03*
X023118Y036073D03*
X023118Y035325D03*
X022318Y035325D03*
X022318Y036073D03*
X023993Y034723D03*
X023993Y033975D03*
X024968Y033975D03*
X024968Y034723D03*
X024968Y035625D03*
X024968Y036373D03*
X024968Y037125D03*
X024968Y037873D03*
X026118Y033498D03*
X026118Y032750D03*
X024868Y031648D03*
X024868Y030900D03*
X011968Y011098D03*
X011968Y010350D03*
X011968Y009498D03*
X011968Y008750D03*
X013293Y005948D03*
X013293Y005200D03*
X017568Y005175D03*
X017568Y005923D03*
X020168Y009375D03*
X020168Y010123D03*
X023343Y007348D03*
X023343Y006600D03*
X024143Y006600D03*
X024143Y007348D03*
X024293Y008450D03*
X024293Y009198D03*
X025493Y005423D03*
X025493Y004675D03*
D19*
X025226Y032500D03*
X025226Y033248D03*
X024360Y032874D03*
D20*
X023393Y016850D03*
X023393Y015747D03*
X022043Y015747D03*
X022043Y016850D03*
X020043Y008525D03*
X020043Y007422D03*
X013193Y008747D03*
X013193Y009850D03*
D21*
X024998Y011574D03*
X024998Y012074D03*
X024998Y012574D03*
X024998Y013074D03*
X024998Y015374D03*
X024998Y015874D03*
X024998Y016374D03*
X024998Y016874D03*
X026938Y016874D03*
X026938Y016374D03*
X026938Y015874D03*
X026938Y015374D03*
X026938Y013074D03*
X026938Y012574D03*
X026938Y012074D03*
X026938Y011574D03*
D22*
X022643Y008649D03*
X022143Y007899D03*
X021643Y008649D03*
X028618Y031299D03*
X012768Y038199D03*
X010768Y038199D03*
D23*
X016169Y037349D03*
X016917Y037349D03*
X016892Y036474D03*
X016144Y036474D03*
X026744Y030799D03*
X027492Y030799D03*
X025192Y017824D03*
X024444Y017824D03*
X025769Y014599D03*
X026517Y014599D03*
X026517Y013824D03*
X025769Y013824D03*
X025844Y010799D03*
X026592Y010799D03*
X027294Y010799D03*
X028042Y010799D03*
X028042Y009699D03*
X027294Y009699D03*
X024092Y005849D03*
X023344Y005849D03*
X017992Y009024D03*
X017244Y009024D03*
X015567Y009249D03*
X014819Y009249D03*
X014817Y005974D03*
X014817Y005149D03*
X014069Y005149D03*
X014069Y005974D03*
X012517Y005974D03*
X012517Y005149D03*
X011769Y005149D03*
X011769Y005974D03*
X015994Y005974D03*
X015994Y005149D03*
X016742Y005149D03*
X016742Y005974D03*
X008967Y021499D03*
X008219Y021499D03*
D24*
X012986Y034449D03*
X012986Y035749D03*
X014600Y035749D03*
X014600Y034449D03*
X024611Y018649D03*
X026225Y018649D03*
X026886Y017674D03*
X028500Y017674D03*
D25*
X024043Y036504D03*
X024043Y037843D03*
D26*
X016862Y035524D03*
X015524Y035524D03*
D27*
X010993Y035481D03*
X010993Y033867D03*
D28*
X017493Y026249D03*
D29*
X017493Y026249D03*
D30*
X007193Y008070D02*
X007193Y007477D01*
X008193Y007477D02*
X008193Y008070D01*
X009193Y008070D02*
X009193Y007477D01*
X009193Y013327D02*
X009193Y013920D01*
X008193Y013920D02*
X008193Y013327D01*
X007193Y013327D02*
X007193Y013920D01*
X027971Y008324D02*
X028565Y008324D01*
X028565Y007324D02*
X027971Y007324D01*
D31*
X009420Y009561D03*
X008920Y009561D03*
X008420Y009561D03*
X007920Y009561D03*
X007920Y011687D03*
X008420Y011687D03*
X008920Y011687D03*
X009420Y011687D03*
D32*
X017343Y021624D03*
X013468Y026249D03*
X017343Y030874D03*
D33*
X017468Y026249D03*
X021343Y030874D03*
X021343Y021624D03*
X009468Y026249D03*
D34*
X007243Y011958D03*
X007243Y011289D03*
X007268Y010083D03*
X007268Y009414D03*
D35*
X025043Y008569D03*
X025543Y008569D03*
X026043Y008569D03*
X026543Y008569D03*
X026543Y006629D03*
X026043Y006629D03*
X025543Y006629D03*
X025043Y006629D03*
D36*
X025133Y009649D03*
X025803Y009649D03*
D37*
X024243Y009960D03*
X024243Y010787D03*
D38*
X009366Y017054D03*
D39*
X009366Y019054D03*
D40*
X017343Y015874D03*
X020343Y015874D03*
X018868Y009474D03*
X018868Y006474D03*
D41*
X018868Y007226D03*
X019591Y015874D03*
D42*
X018868Y008474D03*
D43*
X018343Y015874D03*
D44*
X026033Y034839D03*
X026033Y035749D03*
X026033Y036659D03*
X018233Y036949D03*
X018233Y037859D03*
X018233Y036039D03*
D45*
X020503Y036949D03*
X028303Y035749D03*
D46*
X028518Y016307D03*
X028518Y014890D03*
X028518Y013557D03*
X028518Y012140D03*
X021818Y006857D03*
X021818Y005440D03*
D47*
X021818Y005649D03*
X028518Y012349D03*
X028518Y015099D03*
D48*
X028518Y016099D03*
X028518Y013349D03*
X021818Y006649D03*
D49*
X017038Y006724D03*
X017038Y006984D03*
X017038Y007244D03*
X017038Y007494D03*
X017038Y007754D03*
X017038Y008004D03*
X017038Y008264D03*
X017038Y008524D03*
X014798Y008524D03*
X014798Y008264D03*
X014798Y008004D03*
X014798Y007754D03*
X014798Y007494D03*
X014798Y007244D03*
X014798Y006984D03*
X014798Y006724D03*
D50*
X020622Y041050D02*
X020622Y041650D01*
X021622Y041650D02*
X021622Y041050D01*
X022622Y041050D02*
X022622Y041650D01*
X025347Y041650D02*
X025347Y041050D01*
X026347Y041050D02*
X026347Y041650D01*
X027347Y041650D02*
X027347Y041050D01*
D51*
X026118Y020224D03*
D52*
X026118Y021224D03*
X026118Y022224D03*
X026118Y023224D03*
X026118Y024224D03*
X026118Y025224D03*
X026118Y026224D03*
X026118Y027224D03*
X026118Y028224D03*
X025118Y028224D03*
X025118Y027224D03*
X025118Y026224D03*
X025118Y025224D03*
X025118Y024224D03*
X025118Y023224D03*
X025118Y022224D03*
X025118Y021224D03*
X025118Y020224D03*
D53*
X026618Y031299D03*
D54*
X027618Y031299D03*
D55*
X016018Y009249D03*
D56*
X013418Y010324D03*
X012993Y010324D03*
X013493Y011799D03*
X013493Y012224D03*
X011093Y013049D03*
X011093Y013474D03*
X011093Y014374D03*
X011093Y014799D03*
X023393Y015249D03*
X023418Y013374D03*
X026318Y017574D03*
X026768Y018524D03*
D57*
X025543Y015874D02*
X024998Y015874D01*
X025543Y015874D02*
X025768Y015649D01*
X025768Y014600D01*
X025769Y014599D01*
X025769Y013824D01*
X026517Y013824D02*
X026617Y013949D01*
X026943Y013949D01*
X026517Y014599D02*
X026368Y014748D01*
X026368Y015274D01*
X026468Y015374D01*
X026938Y015374D01*
X028493Y015099D02*
X028518Y015074D01*
X028043Y011649D02*
X028042Y011648D01*
X028026Y011648D01*
X028010Y011632D01*
X028042Y010799D02*
X028493Y010799D01*
X028468Y010249D02*
X028493Y010224D01*
X028493Y009849D01*
X028468Y010249D02*
X025368Y010249D01*
X025133Y010014D01*
X025133Y009649D01*
X025043Y009558D01*
X025043Y008569D01*
X025543Y008574D02*
X025543Y008974D01*
X025768Y009199D01*
X027343Y009199D01*
X027294Y009248D01*
X027294Y009699D01*
X027343Y009199D02*
X028268Y008324D01*
X028268Y007324D02*
X027668Y007324D01*
X027393Y007599D01*
X026043Y007599D01*
X025543Y007099D01*
X025543Y006629D01*
X025543Y005198D01*
X025493Y005423D01*
X025043Y006049D02*
X025043Y006629D01*
X026043Y006629D02*
X026043Y007074D01*
X026293Y007324D01*
X026943Y007324D01*
X027593Y006674D01*
X028693Y006674D01*
X029468Y007449D01*
X027018Y006624D02*
X026568Y006624D01*
X026043Y007599D02*
X026043Y008569D01*
X026218Y009649D02*
X025793Y009649D01*
X025844Y010799D02*
X025393Y010799D01*
X026293Y010974D02*
X026468Y010799D01*
X026592Y010799D01*
X027294Y010799D01*
X026293Y010974D02*
X026293Y011424D01*
X025643Y012074D01*
X024998Y012074D01*
X024218Y011799D02*
X024193Y011774D01*
X024193Y011724D01*
X024243Y011724D01*
X024193Y011724D02*
X024193Y010949D01*
X024355Y010787D01*
X024243Y010787D01*
X024243Y009960D02*
X024243Y009249D01*
X024293Y009199D01*
X024293Y008450D02*
X024418Y008325D01*
X024418Y007999D01*
X023344Y005849D02*
X023344Y005650D01*
X023343Y005649D01*
X022143Y010574D02*
X022118Y010574D01*
X022143Y010574D02*
X022143Y010899D01*
X017693Y006749D02*
X017693Y006124D01*
X017543Y005924D01*
X017693Y006749D02*
X017458Y006984D01*
X017038Y006984D01*
X015994Y005974D02*
X015943Y005975D01*
X015943Y006199D01*
X016018Y009249D02*
X015567Y009249D01*
X011617Y013249D02*
X011293Y013249D01*
X011093Y013049D01*
X011268Y014599D02*
X011068Y014799D01*
X011268Y014599D02*
X011617Y014599D01*
X009420Y013397D02*
X009420Y011687D01*
X009418Y011685D01*
X009418Y011349D01*
X009168Y011099D01*
X007393Y011099D01*
X007243Y011249D01*
X007243Y011289D01*
X007218Y011949D02*
X007243Y011974D01*
X007268Y011974D01*
X007193Y012049D01*
X007193Y013624D01*
X008193Y013624D02*
X008218Y013599D01*
X008218Y012774D01*
X008920Y012072D01*
X008920Y011687D01*
X007920Y011687D02*
X007918Y011689D01*
X007918Y011924D01*
X007883Y011958D01*
X007243Y011958D01*
X007268Y010474D02*
X007268Y010083D01*
X007268Y009414D02*
X007193Y009339D01*
X007268Y009414D02*
X007920Y009414D01*
X007920Y009561D01*
X008418Y009559D02*
X008418Y008999D01*
X008193Y008774D01*
X008193Y007799D01*
X008193Y007774D01*
X007193Y007774D02*
X007193Y007674D01*
X008418Y009559D02*
X008420Y009561D01*
X009420Y009561D02*
X009433Y009574D01*
X009768Y009574D01*
X009420Y013397D02*
X009193Y013624D01*
X014068Y017899D02*
X014068Y018183D01*
X024868Y030900D02*
X025617Y030900D01*
X027043Y029474D01*
X027043Y025124D01*
X026143Y024224D01*
X026744Y030799D02*
X026744Y031173D01*
X026618Y031299D01*
X026269Y031648D01*
X024868Y031648D01*
X025226Y032500D02*
X026069Y032500D01*
X026068Y032499D01*
X026068Y032199D01*
X026268Y031999D01*
X027068Y031999D01*
X027618Y031449D01*
X027618Y031299D01*
X028618Y031299D01*
X027618Y031299D02*
X027492Y031173D01*
X027492Y030799D01*
X026069Y032500D02*
X026118Y032549D01*
X026118Y032750D01*
X026118Y033449D02*
X025218Y033449D01*
X025226Y033441D01*
X025226Y033248D01*
X025227Y033249D01*
X025218Y033449D02*
X024018Y033449D01*
X023993Y033474D01*
X026118Y033498D02*
X026118Y033449D01*
D58*
X025443Y033874D03*
X023993Y033474D03*
X022943Y034374D03*
X022318Y034899D03*
X023993Y035174D03*
X024718Y038399D03*
X026743Y036649D03*
X020443Y038624D03*
X018793Y037874D03*
X015543Y034999D03*
X007768Y021499D03*
X011468Y011099D03*
X009768Y009574D03*
X007268Y010474D03*
X015543Y012774D03*
X015968Y007974D03*
X015968Y007499D03*
X016418Y007499D03*
X015968Y007024D03*
X015493Y007499D03*
X017943Y007074D03*
X024093Y005349D03*
X025018Y004624D03*
X025043Y006049D03*
X024418Y007999D03*
X026218Y009649D03*
X025393Y010799D03*
X026343Y013074D03*
X026943Y013949D03*
X026318Y016874D03*
X025668Y017824D03*
X024643Y017324D03*
X021143Y017399D03*
X028493Y009849D03*
X027018Y006624D03*
D59*
X027018Y006199D01*
X026618Y005799D01*
X026618Y004874D01*
X025643Y003899D01*
X010968Y003899D01*
X007193Y007674D01*
X007193Y007774D02*
X007193Y009339D01*
X011468Y011099D02*
X011968Y011098D01*
X014793Y009224D02*
X014793Y008599D01*
X014793Y009224D02*
X014818Y009249D01*
X020043Y008525D02*
X020168Y008650D01*
X020168Y009375D01*
X021818Y006857D02*
X021818Y006649D01*
X021818Y005649D02*
X021818Y005440D01*
X023343Y007348D02*
X024143Y007348D01*
X024143Y006600D02*
X024143Y005900D01*
X024092Y005849D01*
X024143Y005899D02*
X024093Y005724D01*
X024093Y005349D01*
X024244Y006499D02*
X024143Y006600D01*
X025043Y006629D02*
X025043Y006899D01*
X025493Y004675D02*
X025442Y004624D01*
X025018Y004624D01*
X024998Y011574D02*
X024993Y011574D01*
X026343Y013074D02*
X026938Y013074D01*
X027068Y013074D01*
X026938Y016874D02*
X026318Y016874D01*
X026768Y018524D02*
X026393Y018799D01*
X023393Y016850D02*
X023393Y021624D01*
X024493Y022724D01*
X025618Y022724D01*
X026118Y023224D01*
X025118Y023224D02*
X024443Y023224D01*
X022993Y021774D01*
X022993Y020399D01*
X021143Y018549D01*
X021143Y017399D01*
X021543Y028224D02*
X020543Y029224D01*
X020518Y029249D01*
X019293Y030474D01*
X019293Y031349D01*
X018518Y032124D01*
X011018Y032124D01*
X012543Y034449D02*
X011918Y035074D01*
X011918Y037024D01*
X010768Y038174D01*
X012768Y038199D02*
X012768Y035742D01*
X012986Y035749D01*
X012986Y034449D02*
X012543Y034449D01*
X014600Y034449D02*
X014600Y035749D01*
X014600Y036481D01*
X015468Y037349D01*
X016169Y037349D01*
X016144Y036474D02*
X016168Y036450D01*
X016168Y036124D01*
X016768Y035524D01*
X016862Y035524D01*
X016868Y035518D01*
X016868Y034849D01*
X017343Y034374D01*
X022943Y034374D01*
X022318Y034899D02*
X022318Y035324D01*
X022318Y036073D02*
X021917Y036073D01*
X021793Y035949D01*
X021793Y034949D01*
X021518Y034674D01*
X018493Y034674D01*
X018218Y034949D01*
X018218Y036024D01*
X018233Y036039D01*
X018267Y036073D01*
X018233Y037859D02*
X018248Y037874D01*
X018793Y037874D01*
X020443Y038624D02*
X021918Y038624D01*
X022293Y038249D01*
X022293Y037873D01*
X022293Y037125D02*
X023093Y037125D01*
X024043Y037125D01*
X024043Y036504D01*
X024043Y036049D01*
X024467Y035625D01*
X024968Y035625D01*
X025909Y035625D01*
X026033Y035749D01*
X026068Y036524D02*
X025119Y036524D01*
X024968Y036373D01*
X024968Y037125D02*
X024043Y037125D01*
X024043Y037843D02*
X024013Y037873D01*
X023093Y037873D01*
X023093Y039724D01*
X023068Y039749D01*
X023268Y039524D02*
X023493Y039749D01*
X024718Y038399D02*
X024718Y038123D01*
X024968Y037873D01*
X026033Y036659D02*
X026033Y036559D01*
X026068Y036524D01*
X026033Y036659D02*
X026733Y036659D01*
X026743Y036649D01*
X026033Y034839D02*
X025084Y034839D01*
X024968Y034723D01*
X024968Y033975D02*
X025069Y033874D01*
X025443Y033874D01*
X024360Y032874D02*
X023943Y032874D01*
X023393Y033424D01*
X023393Y033549D01*
X023393Y033574D02*
X023393Y035050D01*
X023118Y035325D01*
X023118Y036073D02*
X022318Y036073D01*
X023993Y035174D02*
X023993Y034749D01*
X024018Y034724D01*
X023993Y033975D02*
X023993Y033474D01*
X025118Y028224D02*
X021543Y028224D01*
X015543Y034999D02*
X015543Y035504D01*
X015524Y035524D01*
X011018Y021524D02*
X010993Y021499D01*
X008967Y021499D01*
X008219Y021499D02*
X007768Y021499D01*
D60*
X011093Y017224D02*
X015693Y017224D01*
X015693Y012613D01*
X013836Y012613D01*
X013798Y012651D01*
X013188Y012651D01*
X013065Y012528D01*
X013065Y011599D01*
X011093Y011599D01*
X011093Y012621D01*
X011101Y012621D01*
X011215Y012507D01*
X012019Y012507D01*
X012142Y012630D01*
X012142Y013867D01*
X012085Y013924D01*
X012142Y013980D01*
X012142Y015217D01*
X012019Y015340D01*
X011215Y015340D01*
X011101Y015226D01*
X011093Y015226D01*
X011093Y017224D01*
X011093Y017164D02*
X015693Y017164D01*
X015693Y017065D02*
X011093Y017065D01*
X011093Y016967D02*
X015693Y016967D01*
X015693Y016868D02*
X011093Y016868D01*
X011093Y016770D02*
X015693Y016770D01*
X015693Y016671D02*
X011093Y016671D01*
X011093Y016573D02*
X015693Y016573D01*
X015693Y016474D02*
X011093Y016474D01*
X011093Y016376D02*
X015693Y016376D01*
X015693Y016277D02*
X011093Y016277D01*
X011093Y016179D02*
X015693Y016179D01*
X015693Y016080D02*
X011093Y016080D01*
X011093Y015982D02*
X015693Y015982D01*
X015693Y015883D02*
X011093Y015883D01*
X011093Y015785D02*
X015693Y015785D01*
X015693Y015686D02*
X011093Y015686D01*
X011093Y015588D02*
X015693Y015588D01*
X015693Y015489D02*
X011093Y015489D01*
X011093Y015391D02*
X015693Y015391D01*
X015693Y015292D02*
X012067Y015292D01*
X012142Y015194D02*
X015693Y015194D01*
X015693Y015095D02*
X012142Y015095D01*
X012142Y014997D02*
X015693Y014997D01*
X015693Y014898D02*
X012142Y014898D01*
X012142Y014800D02*
X015693Y014800D01*
X015693Y014701D02*
X012142Y014701D01*
X012142Y014603D02*
X015693Y014603D01*
X015693Y014504D02*
X012142Y014504D01*
X012142Y014406D02*
X015693Y014406D01*
X015693Y014307D02*
X012142Y014307D01*
X012142Y014209D02*
X015693Y014209D01*
X015693Y014110D02*
X012142Y014110D01*
X012142Y014012D02*
X015693Y014012D01*
X015693Y013913D02*
X012096Y013913D01*
X012142Y013815D02*
X015693Y013815D01*
X015693Y013716D02*
X012142Y013716D01*
X012142Y013618D02*
X015693Y013618D01*
X015693Y013519D02*
X012142Y013519D01*
X012142Y013421D02*
X015693Y013421D01*
X015693Y013322D02*
X012142Y013322D01*
X012142Y013224D02*
X015693Y013224D01*
X015693Y013125D02*
X012142Y013125D01*
X012142Y013027D02*
X015693Y013027D01*
X015693Y012928D02*
X012142Y012928D01*
X012142Y012830D02*
X015693Y012830D01*
X015693Y012731D02*
X012142Y012731D01*
X012142Y012633D02*
X013169Y012633D01*
X013071Y012534D02*
X012046Y012534D01*
X011188Y012534D02*
X011093Y012534D01*
X011093Y012436D02*
X013065Y012436D01*
X013065Y012337D02*
X011093Y012337D01*
X011093Y012239D02*
X013065Y012239D01*
X013065Y012140D02*
X011093Y012140D01*
X011093Y012042D02*
X013065Y012042D01*
X013065Y011943D02*
X011093Y011943D01*
X011093Y011845D02*
X013065Y011845D01*
X013065Y011746D02*
X011093Y011746D01*
X011093Y011648D02*
X013065Y011648D01*
X013817Y012633D02*
X015693Y012633D01*
X016093Y012633D02*
X020818Y012633D01*
X020818Y012699D02*
X016093Y012699D01*
X016093Y010224D01*
X017643Y010224D01*
X017768Y010099D01*
X017768Y008474D01*
X017568Y008274D01*
X016818Y008274D01*
X016818Y008024D01*
X017568Y008024D01*
X017593Y007999D01*
X019243Y007999D01*
X019243Y009024D01*
X019693Y009024D01*
X019693Y009924D01*
X020818Y009924D01*
X020818Y012699D01*
X020818Y012534D02*
X016093Y012534D01*
X016093Y012436D02*
X020818Y012436D01*
X020818Y012337D02*
X016093Y012337D01*
X016093Y012239D02*
X020818Y012239D01*
X020818Y012140D02*
X016093Y012140D01*
X016093Y012042D02*
X020818Y012042D01*
X020818Y011943D02*
X016093Y011943D01*
X016093Y011845D02*
X020818Y011845D01*
X020818Y011746D02*
X016093Y011746D01*
X016093Y011648D02*
X020818Y011648D01*
X020818Y011549D02*
X016093Y011549D01*
X016093Y011451D02*
X020818Y011451D01*
X020818Y011352D02*
X016093Y011352D01*
X016093Y011254D02*
X020818Y011254D01*
X020818Y011155D02*
X016093Y011155D01*
X016093Y011057D02*
X020818Y011057D01*
X020818Y010958D02*
X016093Y010958D01*
X016093Y010860D02*
X020818Y010860D01*
X020818Y010761D02*
X016093Y010761D01*
X016093Y010663D02*
X020818Y010663D01*
X020818Y010564D02*
X016093Y010564D01*
X016093Y010466D02*
X020818Y010466D01*
X020818Y010367D02*
X016093Y010367D01*
X016093Y010269D02*
X020818Y010269D01*
X020818Y010170D02*
X017696Y010170D01*
X017768Y010072D02*
X020818Y010072D01*
X020818Y009973D02*
X017768Y009973D01*
X017768Y009875D02*
X019693Y009875D01*
X019693Y009776D02*
X017768Y009776D01*
X017768Y009678D02*
X019693Y009678D01*
X019693Y009579D02*
X017768Y009579D01*
X017768Y009481D02*
X019693Y009481D01*
X019693Y009382D02*
X017768Y009382D01*
X017768Y009284D02*
X019693Y009284D01*
X019693Y009185D02*
X017768Y009185D01*
X017768Y009087D02*
X019693Y009087D01*
X019243Y008988D02*
X017768Y008988D01*
X017768Y008890D02*
X019243Y008890D01*
X019243Y008791D02*
X017768Y008791D01*
X017768Y008693D02*
X019243Y008693D01*
X019243Y008594D02*
X017768Y008594D01*
X017768Y008496D02*
X019243Y008496D01*
X019243Y008397D02*
X017691Y008397D01*
X017593Y008299D02*
X019243Y008299D01*
X019243Y008200D02*
X016818Y008200D01*
X016818Y008102D02*
X019243Y008102D01*
X019243Y008003D02*
X017588Y008003D01*
X017398Y007774D02*
X017388Y007764D01*
X017143Y007764D01*
X017143Y007734D01*
X017388Y007734D01*
X017398Y007724D01*
X017468Y007724D01*
X017518Y007674D01*
X017518Y007484D01*
X017821Y007484D01*
X017845Y007474D01*
X018318Y007474D01*
X018318Y006124D01*
X020593Y006124D01*
X020593Y008040D01*
X019568Y008040D01*
X019568Y007774D01*
X017398Y007774D01*
X017484Y007708D02*
X020593Y007708D01*
X020593Y007806D02*
X019568Y007806D01*
X019568Y007905D02*
X020593Y007905D01*
X020593Y008003D02*
X019568Y008003D01*
X020593Y007609D02*
X017518Y007609D01*
X017518Y007511D02*
X020593Y007511D01*
X020593Y007412D02*
X018318Y007412D01*
X018318Y007314D02*
X020593Y007314D01*
X020593Y007215D02*
X018318Y007215D01*
X018318Y007117D02*
X020593Y007117D01*
X020593Y007018D02*
X018318Y007018D01*
X018318Y006920D02*
X020593Y006920D01*
X020593Y006821D02*
X018318Y006821D01*
X018318Y006723D02*
X020593Y006723D01*
X020593Y006624D02*
X018318Y006624D01*
X018318Y006526D02*
X020593Y006526D01*
X020593Y006427D02*
X018318Y006427D01*
X018318Y006329D02*
X020593Y006329D01*
X020593Y006230D02*
X018318Y006230D01*
X018318Y006132D02*
X020593Y006132D01*
X018068Y006949D02*
X018068Y004574D01*
X017768Y004274D01*
X015143Y004274D01*
X014817Y004600D01*
X014817Y005100D01*
X015243Y005147D02*
X015309Y005147D01*
X015273Y005182D02*
X015402Y005054D01*
X015527Y004929D01*
X015568Y004929D01*
X015568Y004783D01*
X015668Y004683D01*
X016320Y004683D01*
X016420Y004783D01*
X016420Y005514D01*
X016373Y005561D01*
X016420Y005608D01*
X016420Y006339D01*
X016320Y006439D01*
X016014Y006439D01*
X015509Y006944D01*
X015248Y006944D01*
X015248Y008549D01*
X016588Y008549D01*
X016588Y008383D01*
X016588Y008123D01*
X016588Y007613D01*
X016688Y007514D01*
X016843Y007514D01*
X016843Y007484D01*
X016688Y007484D01*
X016588Y007384D01*
X016588Y006843D01*
X016688Y006744D01*
X016843Y006744D01*
X016843Y006699D01*
X017418Y006699D01*
X017463Y006653D01*
X017463Y006349D01*
X017202Y006349D01*
X017103Y006249D01*
X017103Y005596D01*
X017202Y005497D01*
X017848Y005497D01*
X017848Y004665D01*
X017682Y004499D01*
X015229Y004499D01*
X015044Y004683D01*
X015143Y004683D01*
X015243Y004783D01*
X015243Y005514D01*
X015143Y005614D01*
X014893Y005614D01*
X014893Y006254D01*
X015227Y006254D01*
X015273Y006207D01*
X015273Y005182D01*
X015273Y005245D02*
X015243Y005245D01*
X015243Y005344D02*
X015273Y005344D01*
X015273Y005442D02*
X015243Y005442D01*
X015217Y005541D02*
X015273Y005541D01*
X015273Y005639D02*
X014893Y005639D01*
X014893Y005738D02*
X015273Y005738D01*
X015273Y005836D02*
X014893Y005836D01*
X014893Y005935D02*
X015273Y005935D01*
X015273Y006033D02*
X014893Y006033D01*
X014893Y006132D02*
X015273Y006132D01*
X015250Y006230D02*
X014893Y006230D01*
X015318Y006474D02*
X014468Y006474D01*
X014368Y006574D01*
X014368Y006899D01*
X014453Y006984D01*
X014798Y006984D01*
X014798Y007244D02*
X014413Y007244D01*
X014069Y006900D01*
X014069Y005974D01*
X014069Y005149D01*
X014018Y005200D01*
X013293Y005200D01*
X013242Y005149D01*
X012517Y005149D01*
X012543Y005948D02*
X012517Y005974D01*
X012543Y005948D02*
X013293Y005948D01*
X013543Y006674D02*
X012268Y006674D01*
X011768Y006174D01*
X011768Y005999D01*
X011793Y005999D01*
X011769Y005974D02*
X011769Y005149D01*
X011769Y005075D01*
X013543Y006674D02*
X014363Y007494D01*
X014798Y007494D01*
X014798Y007749D02*
X014798Y007754D01*
X014323Y007754D01*
X013493Y006924D01*
X008643Y006924D01*
X008193Y007374D01*
X008193Y007799D01*
X011968Y008750D02*
X013191Y008750D01*
X013193Y008747D01*
X014068Y009299D02*
X012167Y009299D01*
X011968Y009498D01*
X011943Y009499D02*
X011968Y009524D01*
X011968Y010350D01*
X012943Y009975D02*
X013193Y009850D01*
X012943Y009975D02*
X013418Y010324D01*
X014068Y009299D02*
X014168Y009199D01*
X014168Y008549D01*
X014453Y008264D01*
X014798Y008264D01*
X015248Y008299D02*
X016588Y008299D01*
X016588Y008397D02*
X015248Y008397D01*
X015248Y008496D02*
X016588Y008496D01*
X016588Y008200D02*
X015248Y008200D01*
X015248Y008102D02*
X016588Y008102D01*
X016588Y008003D02*
X015248Y008003D01*
X015248Y007905D02*
X016588Y007905D01*
X016588Y007806D02*
X015248Y007806D01*
X015248Y007708D02*
X016588Y007708D01*
X016592Y007609D02*
X015248Y007609D01*
X015248Y007511D02*
X016843Y007511D01*
X016616Y007412D02*
X015248Y007412D01*
X015248Y007314D02*
X016588Y007314D01*
X016588Y007215D02*
X015248Y007215D01*
X015248Y007117D02*
X016588Y007117D01*
X016588Y007018D02*
X015248Y007018D01*
X015533Y006920D02*
X016588Y006920D01*
X016610Y006821D02*
X015632Y006821D01*
X015730Y006723D02*
X016843Y006723D01*
X017182Y006329D02*
X016420Y006329D01*
X016420Y006230D02*
X017103Y006230D01*
X017103Y006132D02*
X016420Y006132D01*
X016420Y006033D02*
X017103Y006033D01*
X017103Y005935D02*
X016420Y005935D01*
X016420Y005836D02*
X017103Y005836D01*
X017103Y005738D02*
X016420Y005738D01*
X016420Y005639D02*
X017103Y005639D01*
X017158Y005541D02*
X016394Y005541D01*
X016420Y005442D02*
X017848Y005442D01*
X017848Y005344D02*
X016420Y005344D01*
X016420Y005245D02*
X017848Y005245D01*
X017848Y005147D02*
X016420Y005147D01*
X016420Y005048D02*
X017848Y005048D01*
X017848Y004950D02*
X016420Y004950D01*
X016420Y004851D02*
X017848Y004851D01*
X017848Y004753D02*
X016390Y004753D01*
X015994Y005149D02*
X015618Y005149D01*
X015493Y005274D01*
X015493Y006299D01*
X015318Y006474D01*
X015418Y006724D02*
X014798Y006724D01*
X015418Y006724D02*
X015943Y006199D01*
X015927Y006526D02*
X017463Y006526D01*
X017463Y006624D02*
X015829Y006624D01*
X016332Y006427D02*
X017463Y006427D01*
X018068Y006949D02*
X017943Y007074D01*
X018098Y008004D02*
X017038Y008004D01*
X015407Y005048D02*
X015243Y005048D01*
X015243Y004950D02*
X015506Y004950D01*
X015568Y004851D02*
X015243Y004851D01*
X015213Y004753D02*
X015598Y004753D01*
X015172Y004556D02*
X017739Y004556D01*
X017837Y004654D02*
X015074Y004654D01*
X016093Y012999D02*
X019018Y012999D01*
X019018Y016499D01*
X016093Y016499D01*
X016093Y012999D01*
X016093Y013027D02*
X019018Y013027D01*
X019018Y013125D02*
X016093Y013125D01*
X016093Y013224D02*
X019018Y013224D01*
X019018Y013322D02*
X016093Y013322D01*
X016093Y013421D02*
X019018Y013421D01*
X019018Y013519D02*
X016093Y013519D01*
X016093Y013618D02*
X019018Y013618D01*
X019018Y013716D02*
X016093Y013716D01*
X016093Y013815D02*
X019018Y013815D01*
X019018Y013913D02*
X016093Y013913D01*
X016093Y014012D02*
X019018Y014012D01*
X019018Y014110D02*
X016093Y014110D01*
X016093Y014209D02*
X019018Y014209D01*
X019018Y014307D02*
X016093Y014307D01*
X016093Y014406D02*
X019018Y014406D01*
X019018Y014504D02*
X016093Y014504D01*
X016093Y014603D02*
X019018Y014603D01*
X019018Y014701D02*
X016093Y014701D01*
X016093Y014800D02*
X019018Y014800D01*
X019018Y014898D02*
X016093Y014898D01*
X016093Y014997D02*
X019018Y014997D01*
X019018Y015095D02*
X016093Y015095D01*
X016093Y015194D02*
X019018Y015194D01*
X019018Y015292D02*
X016093Y015292D01*
X016093Y015391D02*
X019018Y015391D01*
X019018Y015489D02*
X016093Y015489D01*
X016093Y015588D02*
X019018Y015588D01*
X019018Y015686D02*
X016093Y015686D01*
X016093Y015785D02*
X019018Y015785D01*
X019018Y015883D02*
X016093Y015883D01*
X016093Y015982D02*
X019018Y015982D01*
X019018Y016080D02*
X016093Y016080D01*
X016093Y016179D02*
X019018Y016179D01*
X019018Y016277D02*
X016093Y016277D01*
X016093Y016376D02*
X019018Y016376D01*
X019018Y016474D02*
X016093Y016474D01*
X011167Y015292D02*
X011093Y015292D01*
X023393Y015249D02*
X023393Y015747D01*
X023469Y014099D02*
X023469Y013425D01*
X023418Y013374D01*
X024998Y016874D02*
X024998Y016899D01*
X025218Y016899D01*
X025218Y017824D01*
X025192Y017824D01*
X025218Y017824D02*
X025668Y017824D01*
X024643Y017624D02*
X024443Y017824D01*
X024643Y017624D02*
X024643Y017324D01*
X026143Y021199D02*
X026118Y021224D01*
X026143Y021199D02*
X026568Y021199D01*
X029468Y018299D01*
X029468Y007449D01*
X028468Y009824D02*
X028042Y009699D01*
X028468Y009824D02*
X028493Y009849D01*
X024693Y026749D02*
X024693Y026799D01*
X025118Y027224D01*
X025168Y027274D02*
X026068Y027299D01*
X027650Y031799D02*
X027297Y032152D01*
X027221Y032228D01*
X027122Y032269D01*
X026643Y032269D01*
X026643Y034249D01*
X025645Y034249D01*
X025643Y034251D01*
X025643Y034404D01*
X026495Y034404D01*
X026618Y034527D01*
X026618Y035151D01*
X026495Y035274D01*
X025643Y035274D01*
X025643Y035374D01*
X025983Y035374D01*
X025983Y035699D01*
X026083Y035699D01*
X026083Y035799D01*
X025983Y035799D01*
X025983Y036124D01*
X025643Y036124D01*
X025643Y036224D01*
X026495Y036224D01*
X026543Y036272D01*
X026574Y036241D01*
X026912Y036241D01*
X027151Y036480D01*
X027151Y036818D01*
X026912Y037057D01*
X026574Y037057D01*
X026553Y037036D01*
X026495Y037094D01*
X025643Y037094D01*
X025643Y038499D01*
X027059Y038499D01*
X027111Y038308D01*
X027281Y038013D01*
X027521Y037772D01*
X027816Y037602D01*
X028145Y037514D01*
X028485Y037514D01*
X028814Y037602D01*
X029109Y037772D01*
X029350Y038013D01*
X029490Y038256D01*
X029490Y031799D01*
X027650Y031799D01*
X027608Y031840D02*
X029490Y031840D01*
X029490Y031939D02*
X027510Y031939D01*
X027411Y032037D02*
X029490Y032037D01*
X029490Y032136D02*
X027313Y032136D01*
X027205Y032234D02*
X029490Y032234D01*
X029490Y032333D02*
X026643Y032333D01*
X026643Y032431D02*
X029490Y032431D01*
X029490Y032530D02*
X026643Y032530D01*
X026643Y032628D02*
X029490Y032628D01*
X029490Y032727D02*
X026643Y032727D01*
X026643Y032825D02*
X029490Y032825D01*
X029490Y032924D02*
X026643Y032924D01*
X026643Y033022D02*
X029490Y033022D01*
X029490Y033121D02*
X026643Y033121D01*
X026643Y033219D02*
X029490Y033219D01*
X029490Y033318D02*
X026643Y033318D01*
X026643Y033416D02*
X029490Y033416D01*
X029490Y033515D02*
X026643Y033515D01*
X026643Y033613D02*
X029490Y033613D01*
X029490Y033712D02*
X026643Y033712D01*
X026643Y033810D02*
X029490Y033810D01*
X029490Y033909D02*
X026643Y033909D01*
X026643Y034007D02*
X029490Y034007D01*
X029490Y034106D02*
X026643Y034106D01*
X026643Y034204D02*
X029490Y034204D01*
X029490Y034303D02*
X025643Y034303D01*
X025643Y034401D02*
X029490Y034401D01*
X029490Y034500D02*
X026591Y034500D01*
X026618Y034598D02*
X029490Y034598D01*
X029490Y034697D02*
X026618Y034697D01*
X026618Y034795D02*
X029490Y034795D01*
X029490Y034894D02*
X026618Y034894D01*
X026618Y034992D02*
X029490Y034992D01*
X029490Y035091D02*
X026618Y035091D01*
X026579Y035189D02*
X029490Y035189D01*
X029490Y035288D02*
X025643Y035288D01*
X025983Y035386D02*
X026083Y035386D01*
X026083Y035374D02*
X026428Y035374D01*
X026466Y035384D01*
X026500Y035404D01*
X026528Y035432D01*
X026548Y035466D01*
X026558Y035504D01*
X026558Y035699D01*
X026083Y035699D01*
X026083Y035374D01*
X026083Y035485D02*
X025983Y035485D01*
X025983Y035583D02*
X026083Y035583D01*
X026083Y035682D02*
X025983Y035682D01*
X026083Y035780D02*
X029490Y035780D01*
X029490Y035682D02*
X026558Y035682D01*
X026558Y035583D02*
X029490Y035583D01*
X029490Y035485D02*
X026553Y035485D01*
X026470Y035386D02*
X029490Y035386D01*
X029490Y035879D02*
X026558Y035879D01*
X026558Y035799D02*
X026558Y035993D01*
X026548Y036032D01*
X026528Y036066D01*
X026500Y036094D01*
X026466Y036113D01*
X026428Y036124D01*
X026083Y036124D01*
X026083Y035799D01*
X026558Y035799D01*
X026558Y035977D02*
X029490Y035977D01*
X029490Y036076D02*
X026518Y036076D01*
X026083Y036076D02*
X025983Y036076D01*
X025983Y035977D02*
X026083Y035977D01*
X026083Y035879D02*
X025983Y035879D01*
X025643Y036174D02*
X029490Y036174D01*
X029490Y036273D02*
X026944Y036273D01*
X027043Y036371D02*
X029490Y036371D01*
X029490Y036470D02*
X027141Y036470D01*
X027151Y036568D02*
X029490Y036568D01*
X029490Y036667D02*
X027151Y036667D01*
X027151Y036765D02*
X029490Y036765D01*
X029490Y036864D02*
X027105Y036864D01*
X027007Y036962D02*
X029490Y036962D01*
X029490Y037061D02*
X026528Y037061D01*
X025643Y037750D02*
X027560Y037750D01*
X027445Y037849D02*
X025643Y037849D01*
X025643Y037947D02*
X027347Y037947D01*
X027262Y038046D02*
X025643Y038046D01*
X025643Y038144D02*
X027205Y038144D01*
X027148Y038243D02*
X025643Y038243D01*
X025643Y038341D02*
X027102Y038341D01*
X027075Y038440D02*
X025643Y038440D01*
X025643Y037652D02*
X027730Y037652D01*
X027999Y037553D02*
X025643Y037553D01*
X025643Y037455D02*
X029490Y037455D01*
X029490Y037553D02*
X028632Y037553D01*
X028900Y037652D02*
X029490Y037652D01*
X029490Y037750D02*
X029071Y037750D01*
X029185Y037849D02*
X029490Y037849D01*
X029490Y037947D02*
X029284Y037947D01*
X029369Y038046D02*
X029490Y038046D01*
X029490Y038144D02*
X029425Y038144D01*
X029482Y038243D02*
X029490Y038243D01*
X029490Y037356D02*
X025643Y037356D01*
X025643Y037258D02*
X029490Y037258D01*
X029490Y037159D02*
X025643Y037159D01*
X021643Y037159D02*
X018758Y037159D01*
X018758Y037193D02*
X018758Y036999D01*
X018283Y036999D01*
X018183Y036999D01*
X018183Y037324D01*
X017838Y037324D01*
X017800Y037313D01*
X017766Y037294D01*
X017738Y037266D01*
X017718Y037232D01*
X017708Y037193D01*
X017708Y036999D01*
X018183Y036999D01*
X018183Y036899D01*
X017708Y036899D01*
X017708Y036704D01*
X017718Y036666D01*
X017738Y036632D01*
X017766Y036604D01*
X017800Y036584D01*
X017838Y036574D01*
X018183Y036574D01*
X018183Y036899D01*
X018283Y036899D01*
X018283Y036999D01*
X018283Y037324D01*
X018628Y037324D01*
X018666Y037313D01*
X018700Y037294D01*
X018728Y037266D01*
X018748Y037232D01*
X018758Y037193D01*
X018733Y037258D02*
X021643Y037258D01*
X021643Y037356D02*
X017143Y037356D01*
X017143Y037399D02*
X017323Y037399D01*
X017323Y037664D01*
X017313Y037702D01*
X017293Y037736D01*
X017265Y037764D01*
X017231Y037784D01*
X017193Y037794D01*
X017143Y037794D01*
X017143Y038589D01*
X019609Y038589D01*
X019693Y038624D01*
X020035Y038624D01*
X020035Y038455D01*
X020274Y038216D01*
X020612Y038216D01*
X020730Y038334D01*
X021643Y038334D01*
X021643Y036209D01*
X021629Y036194D01*
X021629Y036194D01*
X021547Y036113D01*
X021503Y036006D01*
X021503Y035069D01*
X021398Y034964D01*
X018613Y034964D01*
X018508Y035069D01*
X018508Y035604D01*
X018695Y035604D01*
X018818Y035727D01*
X018818Y036351D01*
X018695Y036474D01*
X017771Y036474D01*
X017648Y036351D01*
X017648Y035727D01*
X017771Y035604D01*
X017928Y035604D01*
X017928Y034891D01*
X017972Y034784D01*
X018054Y034703D01*
X018093Y034664D01*
X017463Y034664D01*
X017167Y034959D01*
X017225Y034959D01*
X017348Y035082D01*
X017348Y035965D01*
X017247Y036066D01*
X017268Y036086D01*
X017288Y036120D01*
X017298Y036159D01*
X017298Y036424D01*
X017143Y036424D01*
X017143Y036524D01*
X017298Y036524D01*
X017298Y036789D01*
X017288Y036827D01*
X017268Y036861D01*
X017240Y036889D01*
X017208Y036907D01*
X017231Y036914D01*
X017265Y036933D01*
X017293Y036961D01*
X017313Y036995D01*
X017323Y037034D01*
X017323Y037299D01*
X017143Y037299D01*
X017143Y037399D01*
X017323Y037455D02*
X017740Y037455D01*
X017771Y037424D02*
X018695Y037424D01*
X018737Y037466D01*
X018962Y037466D01*
X019201Y037705D01*
X019201Y038043D01*
X018962Y038282D01*
X018707Y038282D01*
X018695Y038294D01*
X017771Y038294D01*
X017648Y038171D01*
X017648Y037547D01*
X017771Y037424D01*
X017733Y037258D02*
X017323Y037258D01*
X017323Y037159D02*
X017708Y037159D01*
X017708Y037061D02*
X017323Y037061D01*
X017293Y036962D02*
X018183Y036962D01*
X018183Y036864D02*
X018283Y036864D01*
X018283Y036899D02*
X018283Y036574D01*
X018628Y036574D01*
X018666Y036584D01*
X018700Y036604D01*
X018728Y036632D01*
X018748Y036666D01*
X018758Y036704D01*
X018758Y036899D01*
X018283Y036899D01*
X018283Y036962D02*
X021643Y036962D01*
X021643Y036864D02*
X018758Y036864D01*
X018758Y036765D02*
X021643Y036765D01*
X021643Y036667D02*
X018748Y036667D01*
X018699Y036470D02*
X021643Y036470D01*
X021643Y036568D02*
X017298Y036568D01*
X017298Y036667D02*
X017718Y036667D01*
X017708Y036765D02*
X017298Y036765D01*
X017265Y036864D02*
X017708Y036864D01*
X017767Y036470D02*
X017143Y036470D01*
X017298Y036371D02*
X017669Y036371D01*
X017648Y036273D02*
X017298Y036273D01*
X017298Y036174D02*
X017648Y036174D01*
X017648Y036076D02*
X017257Y036076D01*
X017336Y035977D02*
X017648Y035977D01*
X017648Y035879D02*
X017348Y035879D01*
X017348Y035780D02*
X017648Y035780D01*
X017693Y035682D02*
X017348Y035682D01*
X017348Y035583D02*
X017928Y035583D01*
X017928Y035485D02*
X017348Y035485D01*
X017348Y035386D02*
X017928Y035386D01*
X017928Y035288D02*
X017348Y035288D01*
X017348Y035189D02*
X017928Y035189D01*
X017928Y035091D02*
X017348Y035091D01*
X017258Y034992D02*
X017928Y034992D01*
X017928Y034894D02*
X017233Y034894D01*
X017332Y034795D02*
X017968Y034795D01*
X018060Y034697D02*
X017430Y034697D01*
X018508Y035091D02*
X021503Y035091D01*
X021503Y035189D02*
X018508Y035189D01*
X018508Y035288D02*
X021503Y035288D01*
X021503Y035386D02*
X018508Y035386D01*
X018508Y035485D02*
X021503Y035485D01*
X021503Y035583D02*
X018508Y035583D01*
X018773Y035682D02*
X021503Y035682D01*
X021503Y035780D02*
X018818Y035780D01*
X018818Y035879D02*
X021503Y035879D01*
X021503Y035977D02*
X018818Y035977D01*
X018818Y036076D02*
X021532Y036076D01*
X021608Y036174D02*
X018818Y036174D01*
X018818Y036273D02*
X021643Y036273D01*
X021643Y036371D02*
X018797Y036371D01*
X018758Y037061D02*
X021643Y037061D01*
X021643Y037455D02*
X018726Y037455D01*
X019050Y037553D02*
X021643Y037553D01*
X021643Y037652D02*
X019148Y037652D01*
X019201Y037750D02*
X021643Y037750D01*
X021643Y037849D02*
X019201Y037849D01*
X019201Y037947D02*
X021643Y037947D01*
X021643Y038046D02*
X019198Y038046D01*
X019100Y038144D02*
X021643Y038144D01*
X021643Y038243D02*
X020639Y038243D01*
X020247Y038243D02*
X019001Y038243D01*
X018283Y037258D02*
X018183Y037258D01*
X018183Y037159D02*
X018283Y037159D01*
X018283Y037061D02*
X018183Y037061D01*
X018183Y036765D02*
X018283Y036765D01*
X018283Y036667D02*
X018183Y036667D01*
X017648Y037553D02*
X017323Y037553D01*
X017323Y037652D02*
X017648Y037652D01*
X017648Y037750D02*
X017279Y037750D01*
X017143Y037849D02*
X017648Y037849D01*
X017648Y037947D02*
X017143Y037947D01*
X017143Y038046D02*
X017648Y038046D01*
X017648Y038144D02*
X017143Y038144D01*
X017143Y038243D02*
X017720Y038243D01*
X017143Y038341D02*
X020148Y038341D01*
X020050Y038440D02*
X017143Y038440D01*
X017143Y038538D02*
X020035Y038538D01*
X021426Y034992D02*
X018585Y034992D01*
D61*
X028518Y016307D02*
X028518Y016099D01*
X028518Y015099D02*
X028518Y015074D01*
X028518Y014890D01*
X028518Y013557D02*
X028518Y013349D01*
X028518Y012449D02*
X028518Y012349D01*
X028518Y012324D01*
X028518Y012140D01*
X028010Y011632D01*
X027952Y011574D01*
X026938Y011574D01*
X023343Y006600D02*
X023343Y005649D01*
X014670Y012010D02*
X013493Y012010D01*
X013493Y012249D01*
D62*
X014068Y016499D02*
X014543Y016974D01*
X020393Y016974D01*
X021568Y015799D01*
X022043Y015799D01*
X022043Y016799D02*
X022043Y016850D01*
X023393Y016850D01*
X023393Y016849D02*
X023368Y016874D01*
X023368Y016849D01*
X023393Y016849D02*
X023643Y016849D01*
X024243Y016249D01*
X024243Y015399D01*
X024268Y015374D01*
X024998Y015374D01*
X024243Y015399D02*
X024243Y011724D01*
X024393Y011574D01*
X024998Y011574D01*
X022968Y011474D02*
X022968Y009699D01*
X022593Y009324D01*
X022293Y009324D01*
X021643Y008674D01*
X021643Y008649D01*
X022143Y007899D02*
X021818Y007574D01*
X021818Y006857D01*
X021818Y006649D02*
X023293Y006649D01*
X023318Y006624D01*
X023343Y007348D02*
X023343Y007949D01*
X022643Y008649D01*
X022968Y011474D02*
X022143Y012299D01*
X022118Y012324D01*
X022118Y013074D01*
X020793Y013074D01*
X020443Y013424D01*
X020443Y014099D01*
X021443Y014149D02*
X021443Y014774D01*
X020343Y015874D01*
X019591Y015874D01*
X018343Y015874D02*
X017343Y015874D01*
X017218Y015874D02*
X018343Y015874D01*
X018016Y013388D02*
X018016Y013374D01*
X017218Y013374D01*
X014093Y016499D02*
X014068Y016499D01*
X010468Y015952D02*
X009366Y017054D01*
X010468Y015952D02*
X010468Y008974D01*
X011768Y007674D01*
X011968Y007674D01*
X021443Y014149D02*
X021493Y014099D01*
X021494Y014099D02*
X022367Y014099D01*
X023968Y018649D02*
X024611Y018649D01*
X024793Y019249D02*
X024418Y019624D01*
X024418Y021524D01*
X025118Y022224D01*
X025118Y020224D02*
X025118Y019899D01*
X025393Y019624D01*
X027693Y019624D01*
X029168Y018149D01*
X029168Y012674D01*
X028943Y012449D01*
X028518Y012449D01*
X028518Y012324D02*
X028493Y012299D01*
X028493Y010799D01*
X028493Y009849D01*
X028518Y015074D02*
X028268Y015074D01*
X027893Y015449D01*
X027893Y017699D01*
X027918Y017674D01*
X028500Y017674D01*
X027893Y017699D02*
X027893Y018249D01*
X026893Y019249D01*
X024793Y019249D01*
X026318Y017574D02*
X026843Y017624D01*
X026843Y017824D01*
X026886Y017674D01*
X026938Y015374D02*
X027868Y015374D01*
X027893Y015399D01*
D63*
X028315Y004948D03*
X007843Y004948D03*
X007843Y038807D03*
X028315Y038807D03*
D64*
X026318Y039749D02*
X023493Y039749D01*
X023068Y039749D01*
X022668Y039749D01*
X019618Y039749D01*
X019418Y039549D01*
X014268Y039549D01*
X010368Y039549D01*
X010343Y039574D02*
X008945Y040972D01*
X007548Y040972D01*
X017143Y029999D02*
X017143Y029524D01*
X017243Y029424D01*
X017368Y029424D01*
X020043Y026749D01*
X024693Y026749D01*
X017143Y029999D02*
X013468Y026324D01*
X013468Y026249D01*
D65*
X025118Y026224D02*
X025118Y027224D01*
X026118Y027224D01*
X026118Y028224D01*
X026468Y039449D02*
X027347Y040327D01*
X027347Y040649D01*
X026247Y039549D01*
X026318Y039749D01*
X027347Y040649D02*
X027347Y041350D01*
D66*
X010993Y036624D02*
X010993Y035481D01*
X010993Y036624D02*
X009993Y037624D01*
X009993Y039224D01*
X010343Y039574D01*
X010993Y033867D02*
X011018Y033842D01*
X011018Y032124D01*
X011018Y021524D01*
X011018Y018706D01*
X009366Y017054D01*
X022143Y012583D02*
X022143Y012299D01*
D67*
X017343Y021624D02*
X017343Y021674D01*
X015718Y023299D01*
X015718Y023324D01*
X015543Y023499D01*
X015543Y026949D01*
X017368Y028774D01*
X017368Y029424D01*
X017368Y030849D01*
X017343Y030874D01*
D68*
X025168Y027274D02*
X026143Y028249D01*
X026068Y027299D02*
X025093Y026324D01*
D69*
X023968Y018649D03*
D70*
X014793Y008024D02*
X014793Y007979D01*
X014454Y007979D01*
X014449Y007974D01*
X014318Y007974D01*
X014303Y007959D01*
X014238Y007959D01*
X013408Y007129D01*
X012543Y007129D01*
X012543Y009024D01*
X013868Y009024D01*
X013868Y008549D01*
X014393Y008024D01*
X014793Y008024D01*
X014385Y008032D02*
X012543Y008032D01*
X012543Y008100D02*
X014316Y008100D01*
X014248Y008169D02*
X012543Y008169D01*
X012543Y008237D02*
X014179Y008237D01*
X014111Y008306D02*
X012543Y008306D01*
X012543Y008374D02*
X014042Y008374D01*
X013974Y008443D02*
X012543Y008443D01*
X012543Y008511D02*
X013905Y008511D01*
X013868Y008580D02*
X012543Y008580D01*
X012543Y008648D02*
X013868Y008648D01*
X013868Y008717D02*
X012543Y008717D01*
X012543Y008785D02*
X013868Y008785D01*
X013868Y008854D02*
X012543Y008854D01*
X012543Y008922D02*
X013868Y008922D01*
X013868Y008991D02*
X012543Y008991D01*
X012543Y007963D02*
X014307Y007963D01*
X014174Y007895D02*
X012543Y007895D01*
X012543Y007826D02*
X014106Y007826D01*
X014037Y007758D02*
X012543Y007758D01*
X012543Y007689D02*
X013969Y007689D01*
X013900Y007621D02*
X012543Y007621D01*
X012543Y007552D02*
X013832Y007552D01*
X013763Y007484D02*
X012543Y007484D01*
X012543Y007415D02*
X013695Y007415D01*
X013626Y007347D02*
X012543Y007347D01*
X012543Y007278D02*
X013558Y007278D01*
X013489Y007210D02*
X012543Y007210D01*
X012543Y007141D02*
X013421Y007141D01*
D71*
X014798Y008524D02*
X014798Y008594D01*
X014793Y008599D01*
X017038Y008524D02*
X017218Y008524D01*
X017244Y008550D01*
X017244Y009024D01*
X017038Y008264D02*
X017753Y008264D01*
X017768Y008249D01*
X017463Y007754D02*
X017543Y007674D01*
X017463Y007754D02*
X017038Y007754D01*
X017038Y007244D02*
X017773Y007244D01*
X017943Y007074D01*
M02*
